Fast Class-Agnostic Data Manipulation in R - R, Econometrics, High Performance
…
identical(qDF(mtcars), mtcars)
## [1] TRUE

mtcarsDT <- qDT(mtcars, row.names.col = "car")
mtcarsDT
##               car  mpg cyl disp  hp drat    wt  qsec vs am gear carb
##  1:     Mazda RX4 21.0   6  160 110 3.90 2.620 16.46  0  1    4    4
##  2: Mazda RX4 Wag 21.0   6  160 110 3.90 2.875 17.02  0  1    4    4
## ---                                                                 
## 31: Maserati Bora 15.0   8  301 335 3.54 3.570 14.60  0  1    5    8
## 32:    Volvo 142E 21.4   4  121 109 4.11 2.780 18.60  1  1    4    2

mtcarsTBL <- qTBL(mtcars, row.names.col = "car")
print(mtcarsTBL, n = 3)
## # A tibble: 32 x 12
##   car             mpg   cyl  disp    hp  drat    wt  qsec    vs    am  gear  carb
##   <chr>         <dbl> <dbl> <dbl> <dbl> <dbl> <dbl> <dbl> <dbl> <dbl> <dbl> <dbl>
## 1 Mazda RX4      21       6   160   110  3.9   2.62  16.5     0     1     4     4
## 2 Mazda RX4 Wag  21       6   160   110  3.9   2.88  17.0     0     1     4     4
## 3 Datsun 710     22.8     4   108    93  3.85  2.32  18.6     1     1     4     1
## # ... with 29 more rows
…
